<?xml version="1.0" standalone="no"?>
<!DOCTYPE svg PUBLIC "-//W3C//DTD SVG 1.1//EN" "http://www.w3.org/Graphics/SVG/1.1/DTD/svg11.dtd" >
<svg xmlns="http://www.w3.org/2000/svg">
<metadata>
<json>
<![CDATA[
{
	"fontFamily": "tractor",
	"majorVersion": 1,
	"minorVersion": 0,
	"version": "Version 1.0",
	"fontId": "tractor",
	"psName": "tractor",
	"subFamily": "Regular",
	"fullName": "tractor",
	"description": "Font generated by IcoMoon."
}
]]>
</json>
</metadata>
<defs>
<font id="tractor" horiz-adv-x="1024">
<font-face units-per-em="1024" ascent="960" descent="-64" />
<missing-glyph horiz-adv-x="1024" />
<glyph unicode="&#x20;" horiz-adv-x="512" d="" />
<glyph unicode="&#xe900;" glyph-name="agent" data-tags="agent" horiz-adv-x="1006" d="M1003.279 14.259l-41.242 230.752c-9.053 64.377-73.028 113.062-148.872 113.062h-193.534c-6.639 0-12.473-4.024-14.887-10.059l-36.011-90.53-10.461 65.383 18.911 51.301c2.012 5.633 0.805 11.87-3.219 16.295l-59.549 65.383c-6.237 7.041-17.301 7.041-23.538 0l-59.348-65.182c-4.024-4.426-5.231-10.662-3.219-16.295l18.911-51.301-10.461-65.182-35.81 90.128c-2.414 6.035-8.248 10.059-14.887 10.059h-193.735c-75.844 0-140.020-48.484-148.872-112.459l-40.839-230.149c-2.615-14.284-5.432-69.206 62.365-77.454h874.524c40.437 0 71.016 36.413 63.774 76.247zM502.746 421.444l41.242-45.265-13.278-35.81h-55.928l-13.278 35.81 41.242 45.265zM477.397 308.583h50.898l17.503-109.039-42.851-108.033-43.052 108.234 17.503 108.838zM941.517-30.001h-877.139c-19.514 0-34.402 17.704-30.982 37.017l41.443 233.569c6.84 48.685 57.135 85.501 117.287 85.501h182.872l53.312-133.784 59.549-149.677c2.414-6.035 8.248-10.059 14.887-10.059s12.473 4.024 14.887 10.059l112.66 283.461h182.872c60.152 0 110.447-36.816 117.488-86.105l41.644-233.166c3.42-19.313-11.467-36.816-30.78-36.816zM310.821 677.746c26.556-97.773 100.589-197.155 192.126-197.155s165.57 99.382 192.126 197.155c31.987 2.817 57.135 31.183 57.135 65.383v10.26c0 34.603-25.55 62.969-57.738 65.584-27.964 83.489-105.015 140.825-191.321 140.825s-163.357-57.336-191.321-140.825c-32.189-2.414-57.743-30.982-57.743-65.584v-10.26c-0.398-34.2 24.75-62.567 56.737-65.383zM285.674 753.591c0 18.71 13.68 33.798 30.378 33.798h3.822c0.604 0 2.012-0.201 2.615-0.201 7.444-0.402 14.284 4.426 16.295 11.668 20.721 76.046 88.116 129.157 164.162 129.157s143.44-53.111 164.162-129.157c2.012-7.242 8.852-12.071 16.295-11.668 0.805 0 1.811 0.201 1.408 0.201h4.828c16.698 0 30.378-15.088 30.378-33.798v-10.26c0-18.71-13.68-33.798-30.378-33.798h-3.822c-0.604 0-2.213 0.201-2.615 0.201-7.846 0.201-14.485-4.828-16.295-12.473-20.923-90.933-87.915-184.883-164.162-184.883s-143.239 93.95-164.162 184.883c-1.609 7.242-8.248 12.473-15.491 12.473-0.201 0-0.402 0-0.604 0-1.006 0-1.811-0.201-1.609-0.201h-4.828c-16.698 0-30.378 15.088-30.378 33.798v10.26z" />
<glyph unicode="&#xe901;" glyph-name="agent2" data-tags="agent2" d="M1018.568 524.046l-167.18 145.855v227.332c0 8.852-7.242 15.893-15.893 15.893h-129.358c-8.852 0-15.893-7.242-15.893-15.893v-86.507l-166.777 145.251c-6.035 5.231-14.887 5.231-20.923 0l-495.101-431.931c-5.029-4.426-6.84-11.467-4.426-17.704s8.248-10.461 14.887-10.461h126.139v-494.296c0-35.206 28.567-63.774 63.774-63.774h609.974c35.206 0 63.774 28.567 63.774 63.774v494.497h126.139c6.639 0 12.674 4.225 14.887 10.461 2.817 6.237 1.006 13.278-4.024 17.503zM722.031 782.761v98.578h97.371v-183.475l-12.272 10.662-85.099 74.235zM866.075 528.069c-8.852 0-15.893-7.242-15.893-15.893v-456.676h-86.708c-8.852 0-15.893-7.242-15.893-15.893 0-8.852 7.242-15.893 15.893-15.893h86.708v-21.727c0-17.704-14.284-31.987-31.987-31.987h-610.175c-17.704 0-31.987 14.284-31.987 31.987v21.727h87.915c8.852 0 15.893 7.242 15.893 15.893 0 8.852-7.242 15.893-15.893 15.893h-87.915v456.676c0 8.852-7.242 15.893-15.893 15.893h-99.583l452.451 394.713 452.451-394.713h-99.382zM654.636 55.5h-283.26c-8.852 0-15.893-7.242-15.893-15.893 0-8.852 7.242-15.893 15.893-15.893h283.26c8.852 0 15.893 7.242 15.893 15.893 0 8.852-7.041 15.893-15.893 15.893zM695.475 654.007c6.639-5.834 16.698-5.029 22.532 1.609s5.029 16.698-1.609 22.532l-193.132 168.387c-6.035 5.231-14.887 5.231-20.923 0l-284.668-248.657c-6.639-5.834-7.242-15.893-1.609-22.532 3.219-3.621 7.645-5.432 12.071-5.432 3.621 0 7.444 1.207 10.461 4.024l274.408 239.403 182.469-159.334zM771.521 630.067c-6.639 5.834-16.698 5.029-22.532-1.609s-5.029-16.698 1.609-22.532l36.816-32.189c3.018-2.615 6.84-4.024 10.461-4.024 4.426 0 8.852 1.811 12.071 5.432 5.834 6.639 5.029 16.698-1.609 22.532l-36.816 32.39zM414.026 556.033c0-59.348 44.461-107.631 98.98-107.631s98.98 48.886 98.98 108.838c0 58.744-44.461 106.424-98.98 106.424s-98.98-48.283-98.98-107.631zM579.998 557.24c0-42.449-30.177-76.85-66.993-76.85s-66.993 33.999-66.993 75.643c0 41.644 30.177 75.643 66.993 75.643 37.62 0 66.993-32.792 66.993-74.436zM699.499 358.878l-136.399 63.17c-4.024 1.811-8.45 2.012-12.473 0.402s-7.242-4.627-8.852-8.651l-28.769-68.803-28.567 67.596c-1.609 4.024-4.828 7.041-8.852 8.651s-8.45 1.408-12.473-0.402l-136.6-63.17c-19.716-9.053-32.39-28.567-32.39-49.289v-183.877c0-4.225 1.609-8.248 4.627-11.266s7.041-4.627 11.266-4.627c0 0 0 0 0 0l405.979 1.207c8.852 0 15.893 7.242 15.893 15.893v183.877c0 20.923-12.674 40.236-32.39 49.289zM699.901 141.605l-373.991-1.006v167.984c0 8.651 5.231 16.295 13.881 20.319l121.512 56.129 36.816-87.312c2.414-5.834 8.248-9.858 14.686-9.858 0 0 0 0 0 0 6.438 0 12.272 3.822 14.686 9.858l36.816 88.519 121.512-56.129c8.651-4.024 13.881-11.668 13.881-20.319v-168.185h0.201z" />
<glyph unicode="&#xe902;" glyph-name="blueprint" data-tags="blueprint" d="M1023.798 208.328c0 0.403 0.202 0.605 0.202 1.008v654.715c0 52.813-43.137 95.95-95.95 95.95h-832.101c-52.813 0-95.95-43.137-95.95-95.95v-831.899c0-53.014 43.137-96.151 95.95-96.151h654.715c0 0 0 0 0 0 2.016 0 4.233 0.403 6.047 1.209s3.628 2.016 5.241 3.427l257.411 257.411c1.411 1.411 2.419 3.024 3.225 4.636 0.202 0.403 0.403 1.008 0.605 1.411 0.202 1.411 0.605 2.822 0.605 4.233zM32.050 31.95v48.781h479.95c8.869 0 15.924 7.257 15.924 15.924s-7.257 15.924-15.924 15.924h-479.95v751.471c0 35.276 28.624 63.899 63.899 63.899h831.899c35.276 0 63.899-28.624 63.899-63.899v-638.589h-161.461c-53.014 0-95.95-43.137-95.95-95.95v-161.461h-638.387c-35.276 0-63.899 28.624-63.899 63.899zM766.589-9.373v138.683c0 35.276 28.624 63.899 63.899 63.899h138.683l-202.583-202.583zM879.269 293.795c8.869 0 15.924 7.257 15.924 15.924v510.589c0 8.869-7.257 15.924-15.924 15.924h-734.539c-8.869 0-15.924-7.257-15.924-15.924v-510.589c0-8.869 7.257-15.924 15.924-15.924h734.539zM642.419 325.644v103.609h220.926v-103.609h-220.926zM160.655 804.384h224.353v-192.101h-139.49c-8.869 0-15.924-7.257-15.924-15.924s7.257-15.924 15.924-15.924h155.616c8.869 0 15.924 7.257 15.924 15.924v208.025h190.085v-208.025c0-8.869 7.257-15.924 15.924-15.924h152.592c8.869 0 15.924 7.257 15.924 15.924s-7.257 15.924-15.924 15.924h-136.668v192.101h224.151v-343.080h-236.649c-8.869 0-15.924-7.257-15.924-15.924v-119.534h-147.553v151.786c0 8.869-7.257 15.924-15.924 15.924h-210.444c-8.869 0-15.924-7.257-15.924-15.924v-151.786h-60.069v478.539zM430.967 325.644h-178.394v135.66h178.394v-135.66zM642.62 112.781h-45.757c-8.869 0-15.924-7.257-15.924-15.924s7.257-15.924 15.924-15.924h45.757c8.869 0 15.924 7.257 15.924 15.924s-7.055 15.924-15.924 15.924z" />
<glyph unicode="&#xe903;" glyph-name="blueprint2" data-tags="blueprint2" d="M927.849 960h-831.698c-53.014 0-95.95-43.137-95.95-95.95v-832.101c0-53.014 43.137-95.95 95.95-95.95h831.698c53.014 0 95.95 43.137 95.95 95.95v832.101c0 52.813-42.935 95.95-95.95 95.95zM991.95 31.95c0-35.276-28.624-64.101-64.101-64.101h-831.698c-35.276 0-64.101 28.624-64.101 64.101v832.101c0 35.276 28.624 64.101 64.101 64.101h831.698c35.276 0 64.101-28.624 64.101-64.101v-832.101zM911.924 864.050h-799.849c-8.869 0-15.924-7.257-15.924-15.924v-800.050c0-8.869 7.257-15.924 15.924-15.924h799.849c8.869 0 15.924 7.257 15.924 15.924v799.849c0 8.869-7.055 16.126-15.924 16.126zM257.008 64h-129.008v100.787h129.008v-100.787zM895.798 279.685h-98.167v234.028c0 8.869-7.257 15.924-15.924 15.924s-15.924-7.257-15.924-15.924v-323.931c0-8.869 7.257-15.924 15.924-15.924s15.924 7.257 15.924 15.924v57.852h98.167v-183.635h-419.276v406.778h189.48c8.869 0 15.924 7.257 15.924 15.924s-7.257 15.924-15.924 15.924h-205.405c-8.869 0-15.924-7.257-15.924-15.924v-422.904h-155.616v116.712c0 8.869-7.257 15.924-15.924 15.924h-145.134v342.677h97.965v-202.986c0-8.869 7.257-15.924 15.924-15.924s15.924 7.257 15.924 15.924v324.132c0 8.869-7.257 15.924-15.924 15.924s-15.924-7.257-15.924-15.924v-89.096h-97.965v260.838h247.332v-92.724c0-8.869 7.257-15.924 15.924-15.924s15.924 7.257 15.924 15.924v92.724h258.419v-92.724c0-8.869 7.257-15.924 15.924-15.924s15.924 7.257 15.924 15.924v92.724h198.148v-552.315h0.202z" />
<glyph unicode="&#xe904;" glyph-name="building" data-tags="building" horiz-adv-x="1006" d="M988.995 258.691h-215.664v129.358c0 8.852-7.242 15.893-15.893 15.893h-231.758c-8.852 0-15.893-7.242-15.893-15.893v-129.358h-215.865c-8.852 0-15.893-7.242-15.893-15.893v-129.358h-215.865c-8.852 0-15.893-7.242-15.893-15.893v-145.452c0-8.852 7.242-15.893 15.893-15.893h926.831c8.852 0 15.897 7.242 15.897 15.893v290.703c0.197 8.852-7.045 15.893-15.897 15.893zM278.029-32.013h-199.771v113.465h199.771v-113.465zM509.787-32.013h-199.771v113.465h199.771v-113.465zM509.787 113.239h-199.771v113.465h199.771v-113.465zM741.344-32.013h-199.771v113.465h199.771v-113.465zM741.344 113.239h-199.771v113.465h199.771v-113.465zM741.344 258.691h-199.771v113.465h199.771v-113.465zM973.102-32.013h-199.771v113.465h199.771v-113.465zM973.102 113.239h-199.771v113.465h199.771v-113.465zM60.354 347.612c16.094 0 31.183 6.237 42.449 17.704l288.289 291.709 56.531-57.336-12.473-12.674c-6.237-6.237-6.237-16.295 0.201-22.532 3.219-3.018 7.242-4.627 11.266-4.627s8.248 1.609 11.266 4.828l142.435 144.044c6.237 6.237 6.237 16.295-0.201 22.532-6.237 6.237-16.295 6.237-22.532-0.201l-12.272-12.272-196.954 199.368 12.473 12.674c6.237 6.237 6.237 16.295-0.201 22.532-6.237 6.237-16.295 6.237-22.532-0.201l-142.435-144.044c-6.237-6.237-6.237-16.295 0.201-22.532 3.219-3.018 7.242-4.627 11.266-4.627s8.248 1.609 11.266 4.828l12.272 12.272 56.531-57.336-289.295-292.514c-22.934-23.136-22.934-60.756 0-83.892v0c11.467-11.467 26.556-17.704 42.449-17.704zM273 821.79l72.827 73.631 196.954-199.368-72.827-73.631-196.954 199.368zM40.638 426.675l288.893 292.313 39.029-39.431-288.289-291.91c-10.461-10.662-28.97-10.662-39.431 0-10.662 10.864-10.662 28.366-0.201 39.029z" />
<glyph unicode="&#xe905;" glyph-name="chat-bubble" data-tags="chat-bubble" d="M948.208 960h-366.866c-41.928 0-75.792-36.888-75.792-82.444v-287.446l-58.86-147.351c-2.419-5.846-1.008-12.498 3.225-16.932 3.024-3.225 10.079-7.66 16.932-4.031l148.762 52.208h332.598c41.928 0 75.792 36.888 75.792 82.444v321.109c0 45.354-34.066 82.444-75.792 82.444zM991.95 556.246c0-27.817-19.754-50.394-43.943-50.394h-335.219c-1.814 0-3.628-0.403-5.241-0.806l-118.123-41.524 46.967 117.518c0.806 1.814 1.209 3.83 1.209 5.846v290.671c0 27.817 19.754 50.394 43.943 50.394h366.866c24.189 0 43.943-22.576 43.943-50.394v-321.31h-0.403zM275.351 393.373c67.326 0 122.154 63.294 122.154 140.901 0 75.994-54.828 137.676-122.154 137.676s-122.154-62.488-122.154-139.288c0-76.8 54.828-139.288 122.154-139.288zM275.351 640.101c49.789 0 90.104-47.37 90.104-105.827 0-60.069-40.517-109.052-90.104-109.052-49.789 0-90.104 48.176-90.104 107.439s40.315 107.439 90.104 107.439zM935.509 759.231l-161.461 115.906c-5.644 4.031-13.102 4.031-18.746 0l-161.461-115.906c-4.233-3.024-6.652-7.861-6.652-12.901v-174.765c0-8.869 7.257-15.924 15.924-15.924h323.124c8.869 0 15.924 7.257 15.924 15.924v174.765c0.202 5.039-2.419 9.877-6.652 12.901zM729.096 587.49v69.745h71.156v-69.745h-71.156zM910.312 587.49h-78.009v85.669c0 8.869-7.257 15.924-15.924 15.924h-103.206c-8.869 0-15.924-7.257-15.924-15.924v-85.669h-78.009v150.576l145.537 104.416 145.537-104.416v-150.576zM512.202 262.35l-174.362 85.065c-4.031 2.016-8.668 2.217-12.699 0.605-4.233-1.613-7.458-4.838-9.071-9.071l-40.517-102.4-40.315 100.787c-1.613 4.233-5.039 7.458-9.071 9.071-4.233 1.613-8.668 1.411-12.699-0.605l-174.362-85.065c-24.391-11.49-39.106-35.074-39.106-61.279v-199.357c0-17.134 6.652-33.26 18.746-45.354s28.22-18.746 45.153-18.746c0 0 0.202 0 0.202 0l422.702 1.209c35.276 0.202 63.899 28.825 63.899 63.899v199.761c0 26.406-14.715 49.991-38.501 61.48zM518.652 1.31c0-17.537-14.312-31.849-31.849-32.050l-422.702-1.209c0 0 0 0 0 0-8.466 0-16.529 3.225-22.576 9.272s-9.474 14.11-9.474 22.576v199.357c0 13.909 7.861 26.406 20.561 32.454l159.043 77.405 48.983-122.154c2.419-6.047 8.265-10.079 14.917-10.079 0 0 0 0 0 0 6.652 0 12.498 4.031 14.917 10.079l48.983 123.565 158.841-77.405c12.699-6.249 20.561-18.545 20.561-32.454v-199.357h-0.202z" />
<glyph unicode="&#xe906;" glyph-name="clock" data-tags="clock" d="M512 908.8c-254.493 0-460.8-206.307-460.8-460.8 0-254.495 206.307-460.8 460.8-460.8 254.495 0 460.8 206.305 460.8 460.8 0 254.493-206.305 460.8-460.8 460.8zM0 448c0 282.77 229.23 512 512 512 282.767 0 512-229.23 512-512 0-282.767-229.233-512-512-512-282.77 0-512 229.233-512 512zM486.4 780.8c14.136 0 25.6-11.462 25.6-25.6v-307.2h128c14.136 0 25.6-11.464 25.6-25.6s-11.464-25.6-25.6-25.6h-153.6c-14.136 0-25.6 11.464-25.6 25.6v332.8c0 14.138 11.464 25.6 25.6 25.6z" />
<glyph unicode="&#xe907;" glyph-name="flats" data-tags="flats" d="M679.307 649.575h88.693c8.869 0 15.924 7.257 15.924 15.924v108.246c0 8.869-7.257 15.924-15.924 15.924h-88.693c-8.869 0-15.924-7.257-15.924-15.924v-108.044c-0.202-8.869 7.055-16.126 15.924-16.126zM695.231 757.82h56.844v-76.195h-56.844v76.195zM468.46 649.575h88.693c8.869 0 15.924 7.257 15.924 15.924v108.246c0 8.869-7.257 15.924-15.924 15.924h-88.693c-8.869 0-15.924-7.257-15.924-15.924v-108.044c0-8.869 7.055-16.126 15.924-16.126zM484.384 757.82h56.844v-76.195h-56.844v76.195zM257.613 649.575h88.693c8.869 0 15.924 7.257 15.924 15.924v108.246c0 8.869-7.257 15.924-15.924 15.924h-88.693c-8.869 0-15.924-7.257-15.924-15.924v-108.044c0-8.869 7.055-16.126 15.924-16.126zM273.739 757.82h56.844v-76.195h-56.844v76.195zM679.307 440.34h88.693c8.869 0 15.924 7.257 15.924 15.924v108.246c0 8.869-7.257 15.924-15.924 15.924h-88.693c-8.869 0-15.924-7.257-15.924-15.924v-108.246c-0.202-8.668 7.055-15.924 15.924-15.924zM695.231 548.586h56.844v-76.195h-56.844v76.195zM468.46 440.34h88.693c8.869 0 15.924 7.257 15.924 15.924v108.246c0 8.869-7.257 15.924-15.924 15.924h-88.693c-8.869 0-15.924-7.257-15.924-15.924v-108.246c0-8.668 7.055-15.924 15.924-15.924zM484.384 548.586h56.844v-76.195h-56.844v76.195zM257.613 440.34h88.693c8.869 0 15.924 7.257 15.924 15.924v108.246c0 8.869-7.257 15.924-15.924 15.924h-88.693c-8.869 0-15.924-7.257-15.924-15.924v-108.246c0-8.668 7.055-15.924 15.924-15.924zM273.739 548.586h56.844v-76.195h-56.844v76.195zM679.307 231.106h88.693c8.869 0 15.924 7.257 15.924 15.924v108.246c0 8.869-7.257 15.924-15.924 15.924h-88.693c-8.869 0-15.924-7.257-15.924-15.924v-108.246c-0.202-8.668 7.055-15.924 15.924-15.924zM695.231 339.351h56.844v-76.195h-56.844v76.195zM468.46 231.106h88.693c8.869 0 15.924 7.257 15.924 15.924v108.246c0 8.869-7.257 15.924-15.924 15.924h-88.693c-8.869 0-15.924-7.257-15.924-15.924v-108.246c0-8.668 7.055-15.924 15.924-15.924zM484.384 339.351h56.844v-76.195h-56.844v76.195zM257.613 231.106h88.693c8.869 0 15.924 7.257 15.924 15.924v108.246c0 8.869-7.257 15.924-15.924 15.924h-88.693c-8.869 0-15.924-7.257-15.924-15.924v-108.246c0-8.668 7.055-15.924 15.924-15.924zM273.739 339.351h56.844v-76.195h-56.844v76.195zM679.307 21.871h88.693c8.869 0 15.924 7.257 15.924 15.924v108.246c0 8.869-7.257 15.924-15.924 15.924h-88.693c-8.869 0-15.924-7.257-15.924-15.924v-108.246c-0.202-8.668 7.055-15.924 15.924-15.924zM695.231 130.117h56.844v-76.195h-56.844v76.195zM1008.076-31.95h-143.924v885.72c0 8.869-7.257 15.924-15.924 15.924h-104.819v74.381c0 8.869-7.257 15.924-15.924 15.924h-430.765c-8.869 0-15.924-7.257-15.924-15.924v-74.18h-104.819c-8.869 0-15.924-7.257-15.924-15.924v-885.72h-144.126c-8.869 0-15.924-7.257-15.924-15.924s7.257-15.924 15.924-15.924h992.151c8.869 0 15.924 7.257 15.924 15.924s-7.257 15.723-15.924 15.723zM312.844 927.95h398.513v-58.255h-398.513v58.255zM541.228-31.95h-56.844v162.066h56.844v-162.066zM832.101-31.95h-258.822v178.192c0 8.869-7.257 15.924-15.924 15.924h-88.693c-8.869 0-15.924-7.257-15.924-15.924v-178.192h-260.636v869.795h640v-869.795zM257.613 21.871h88.693c8.869 0 15.924 7.257 15.924 15.924v108.246c0 8.869-7.257 15.924-15.924 15.924h-88.693c-8.869 0-15.924-7.257-15.924-15.924v-108.246c0-8.668 7.055-15.924 15.924-15.924zM273.739 130.117h56.844v-76.195h-56.844v76.195z" />
<glyph unicode="&#xe908;" glyph-name="gavel" data-tags="gavel" horiz-adv-x="1030" d="M1023.393 361.587l-355.972 360.221 65.164 65.973 14.773-14.975c9.714-9.107 19.428-3.238 22.666-0.202 6.274 6.274 6.274 16.392 0.202 22.666l-158.052 159.874c-6.274 6.274-16.392 6.274-22.666 0.202-6.274-6.274-6.274-16.392-0.202-22.666l14.975-15.178-220.787-223.823-14.773 14.975c-6.274 6.274-16.392 6.274-22.666 0.202-6.274-6.274-6.274-16.392-0.202-22.666l158.052-159.874c10.119-8.904 19.428-3.238 22.666-0.202 6.274 6.274 6.274 16.392 0.202 22.666l-14.975 15.178 65.164 65.973 355.567-359.817c10.321-9.511 19.832-3.036 22.666 0l68.199 69.009c6.274 6.274 6.274 16.19 0 22.463zM489.132 586.827l-83.175 84.187 221.192 223.621 83.175-84.187-221.192-223.621zM943.861 304.114l-344.436 348.686 45.736 46.141 344.436-348.484-45.736-46.343zM727.728 59.851h-49.581l-68.199 165.54c-2.428 6.071-8.297 9.916-14.773 9.916h-446.634c-6.476 0-12.345-3.845-14.773-9.916l-68.199-165.54h-49.581c-8.904 0-15.987-7.083-15.987-15.987v-91.877c0-8.904 7.083-15.987 15.987-15.987h711.741c8.904 0 15.987 7.083 15.987 15.987v91.877c0 8.904-7.285 15.987-15.987 15.987zM159.266 203.333h424.98l59.092-143.481h-543.165l59.092 143.481zM711.741-32.025h-679.766v59.7h679.766v-59.7zM172.016 265.461h399.481c8.904 0 15.987 7.083 15.987 15.987s-7.083 15.987-15.987 15.987h-399.481c-8.904 0-15.987-7.083-15.987-15.987s7.285-15.987 15.987-15.987z" />
<glyph unicode="&#xe909;" glyph-name="house-key" data-tags="house-key" d="M1018.356 342.375l-130.217 110.060v134.652c0 8.869-7.257 15.924-15.924 15.924s-15.924-7.257-15.924-15.924v-107.641l-136.265 115.099v106.028c-0.202 143.118-116.712 259.427-259.628 259.427h-38.299c-137.474 0-250.154-107.843-258.419-243.301h-73.373c-26.809 0-52.208-11.087-69.342-30.639-15.924-18.142-23.181-41.121-20.359-64.504l21.165-169.726c4.031-31.849 32.454-55.836 66.318-55.836h6.652v-367.471c0-3.83 1.411-7.66 4.031-10.683l68.132-76.397c3.024-3.427 7.458-5.443 11.893-5.443 4.636 0 8.869 2.016 11.893 5.443l68.132 76.397c2.822 3.225 4.435 7.458 4.031 11.893s-2.419 8.265-5.846 11.087l-33.058 27.414 33.058 27.213c3.628 3.024 5.846 7.66 5.846 12.296v26.809c0 4.838-2.217 9.272-5.846 12.296l-33.058 27.213 33.058 27.213c3.628 3.024 5.846 7.66 5.846 12.296v26.809c0 4.838-2.217 9.272-5.846 12.296l-33.058 27.213 33.058 27.213c3.628 3.024 5.846 7.66 5.846 12.296v76.195h6.854c33.865 0 62.287 23.987 66.318 55.836l21.165 169.726c3.024 23.584-4.233 46.362-20.359 64.504-17.134 19.553-42.532 30.639-69.342 30.639h-71.761c8.265 117.921 106.633 211.25 226.57 211.25h38.299c125.38 0 227.376-101.997 227.376-227.376v-106.028l-298.734-251.767c-5.039-4.435-7.055-11.49-4.636-17.739 2.217-6.249 8.265-10.482 15.118-10.482h88.088v-314.255c0-35.276 28.624-63.899 63.899-63.899h309.417c35.276 0 63.899 28.624 63.899 63.899v314.255h82.847c6.652 0 12.699 4.233 15.118 10.482 2.419 6.45 0.403 13.506-4.636 17.739zM231.005 327.257l-42.129-34.872c-3.628-3.024-5.846-7.66-5.846-12.296 0-4.838 2.217-9.272 5.846-12.296l42.129-34.872v-11.691l-42.129-34.872c-3.628-3.024-5.846-7.66-5.846-12.296 0-4.838 2.217-9.272 5.846-12.296l42.129-34.872v-11.691l-42.129-34.872c-3.628-3.024-5.846-7.66-5.846-12.296 0-4.838 2.217-9.272 5.846-12.296l35.276-29.027-45.153-50.595-52.006 58.457v361.222h104.214v-68.535h-0.202zM267.49 684.649c17.739 0 34.268-7.257 45.354-19.754 9.877-11.087 14.312-25.197 12.498-39.509l-21.165-169.726c-2.016-15.924-16.731-27.817-34.469-27.817h-181.619c-17.739 0-32.454 11.893-34.469 27.817l-21.165 169.726c-1.814 14.312 2.62 28.22 12.498 39.509 11.087 12.699 27.616 19.754 45.354 19.754h177.184zM703.698 401.033c29.027 0 52.409-23.584 52.409-52.409 0-29.027-23.584-52.409-52.409-52.409-29.027 0-52.409 23.584-52.409 52.409s23.584 52.409 52.409 52.409zM909.304 346.205c-8.869 0-15.924-7.257-15.924-15.924v-330.18c0-17.739-14.312-32.050-32.050-32.050h-309.619c-17.739 0-32.050 14.312-32.050 32.050v330.18c0 8.869-7.257 15.924-15.924 15.924h-60.472l244.51 206.413v-121.146c-38.904-7.458-68.535-41.726-68.535-82.847 0-46.564 37.896-84.46 84.46-84.46s84.46 37.896 84.46 84.46c0 41.121-29.631 75.389-68.535 82.847v121.146l244.51-206.413h-54.828zM122.557 547.981h112.68c8.869 0 15.924 7.257 15.924 15.924v75.591c0 8.869-7.257 15.924-15.924 15.924h-112.68c-8.869 0-15.924-7.257-15.924-15.924v-75.591c0-8.668 7.055-15.924 15.924-15.924zM138.482 623.572h80.63v-43.54h-80.63v43.54z" />
<glyph unicode="&#xe90a;" glyph-name="house-plan" data-tags="house-plan" horiz-adv-x="1026" d="M1010.091 960h-747.641c-8.869 0-15.924-7.257-15.924-15.924v-747.641c0-8.869 7.257-15.924 15.924-15.924h747.641c8.869 0 15.924 7.257 15.924 15.924v747.641c0 8.668-7.257 15.924-15.924 15.924zM708.334 517.745c-8.869 0-15.924-7.257-15.924-15.924v-197.342h-145.134v139.49c0 8.869-7.257 15.924-15.924 15.924h-252.976v287.244h223.345c8.869 0 15.924 7.257 15.924 15.924v164.888h197.14v-144.328c0-8.869 7.257-15.924 15.924-15.924h57.65v-126.387c0-8.869 7.257-15.924 15.924-15.924h189.48v-107.439l-285.43-0.202zM993.965 657.235h-173.556v126.387c0 8.869-7.257 15.924-15.924 15.924h-57.65v128.403h247.131v-270.715zM485.795 927.95v-148.964h-207.42v148.964h207.42zM278.375 428.044h236.649v-139.49c0-8.869 7.257-15.924 15.924-15.924h286.035v-60.069h-538.608v215.483zM849.235 212.359v76.195c0 8.869-7.257 15.924-15.924 15.924h-108.85v181.216h269.707v-273.335h-144.932zM894.992 116.409c-6.854 5.644-16.932 4.636-22.576-2.217s-4.636-16.932 2.217-22.576l57.852-47.773h-822.425v813.757l47.773-57.852c3.225-3.83 7.66-5.846 12.296-5.846 3.628 0 7.257 1.209 10.079 3.628 6.854 5.644 7.861 15.723 2.217 22.576l-75.994 92.12c-0.202 0.202-0.403 0.202-0.605 0.403-3.024 3.225-7.055 5.443-11.893 5.443s-8.869-2.217-11.893-5.443c-0.202-0.202-0.403-0.202-0.605-0.403l-75.792-92.321c-5.644-6.652-4.636-16.731 2.217-22.375s16.932-4.636 22.576 2.217l47.773 57.852v-829.48c0-8.869 7.257-15.924 15.924-15.924h838.35l-57.852-47.773c-6.854-5.644-7.861-15.723-2.217-22.576 3.225-3.83 7.66-5.846 12.296-5.846 3.628 0 7.257 1.209 10.079 3.628l92.321 75.994c3.628 3.024 5.846 7.66 5.846 12.296s-2.217 9.272-5.846 12.296l-92.12 76.195z" />
<glyph unicode="&#xe90b;" glyph-name="key" data-tags="key" horiz-adv-x="1020" d="M282.905 336.565c-63.849 0-115.853-52.003-115.853-115.853s52.003-115.853 115.853-115.853c63.849 0 115.853 52.003 115.853 115.853-0.201 64.050-52.003 115.853-115.853 115.853zM282.905 136.985c-46.18 0-83.928 37.547-83.928 83.928s37.547 83.928 83.928 83.928c46.381 0 83.928-37.547 83.928-83.928s-37.747-83.928-83.928-83.928zM1012.756 935.504c-0.402 8.232-7.027 14.858-15.26 15.26l-167.253 7.228c-4.417 0.201-8.835-1.405-12.047-4.618l-459.997-460.198c-49.995 13.854-105.211 15.46-163.238-4.417-107.42-36.744-186.127-133.722-194.158-247.165-12.449-172.072 130.108-314.83 301.98-302.984 113.443 7.831 210.623 86.337 247.768 193.757 20.078 58.227 18.472 113.644 4.618 163.84l83.325 83.325c4.016 4.016 5.622 10.039 4.016 15.46l-18.071 65.456 83.125-3.614c9.838-0.402 17.87 7.63 17.267 17.468l-4.216 87.542 89.55-2.409c9.838-0.201 17.669 8.031 17.067 17.87l-5.622 84.932 88.747-3.614c9.035-0.402 16.464 7.027 16.063 16.264l-4.216 83.727 65.255-18.071c5.622-1.606 11.445 0 15.46 4.016l12.047 12.047c3.213 3.213 4.819 7.429 4.618 12.047l-6.827 166.852zM282.905-30.067c-138.34 0-250.98 112.64-250.98 250.98s112.64 250.78 250.98 250.981c187.934 0.201 251.382-175.887 250.982-250.981-1.006-138.541-112.642-250.98-250.982-250.98zM987.256 773.271l-77.503 21.484c-5.020 1.405-10.24 0.201-14.256-3.012s-6.224-8.031-6.024-13.252l4.417-87.743-88.546 3.614c-4.417 0.201-8.835-1.606-11.846-4.618 0 0 0 0-0.201-0.201-3.213-3.213-4.819-7.63-4.417-12.248l5.823-85.936-89.951 2.409c-4.417 0.201-8.835-1.606-11.846-4.819s-4.819-7.429-4.618-11.846l4.216-87.944-88.345 3.815c-5.020 0.201-9.838-2.008-13.252-6.024-3.213-4.016-4.216-9.236-2.811-14.055l21.283-77.704-65.656-65.656c-0.201 0.201-0.201 0.402-0.402 0.803-0.402 1.004-1.004 2.209-1.606 3.213-28.712 66.058-81.719 118.864-148.179 147.175-0.402 0.201-0.602 0.402-1.004 0.402-0.201 0.201-0.602 0.201-0.803 0.402l444.135 444.336 60.637-2.61-250.378-250.579c-6.224-6.224-6.224-16.264 0-22.488 3.213-3.213 7.228-4.618 11.244-4.618s8.232 1.606 11.244 4.618l271.26 271.059 41.763-1.807 6.224-145.569-0.602-0.602zM584.082 610.635l-25.5-25.5c-6.224-6.224-6.224-16.264 0-22.488 3.213-3.213 7.228-4.618 11.244-4.618s8.232 1.606 11.244 4.618l25.5 25.5c6.224 6.224 6.224 16.264 0 22.488s-16.264 6.224-22.488 0z" />
<glyph unicode="&#xe90c;" glyph-name="location-pin" data-tags="location-pin" horiz-adv-x="1036" d="M706.397 308.679c95.873 138.301 144.625 244.781 144.625 316.787 0 183.586-149.316 332.902-332.902 332.902s-332.902-149.316-332.902-332.902c0-71.802 48.548-178.486 144.421-316.787-200.924-28.15-329.638-97.3-329.638-179.098 0-107.5 227.646-191.949 518.12-191.949s518.12 84.245 518.12 191.949c0 82.002-128.714 151.152-329.842 179.098zM216.631 625.466c0 166.247 135.241 301.488 301.488 301.488s301.488-135.241 301.488-301.488c0-67.927-53.036-178.69-153.6-319.847-4.692-6.527-9.383-13.055-14.279-19.786-14.687-20.194-30.394-41.001-47.732-63.439-0.204-0.204-0.408-0.408-0.612-0.816-36.717-47.732-68.743-85.673-85.265-104.848-16.523 19.175-48.548 57.116-85.469 104.848-0.204 0.204-0.204 0.408-0.408 0.408-15.707 20.398-31.21 41.205-46.508 62.011-5.304 7.139-10.607 14.483-15.707 21.622-100.36 141.361-153.396 251.92-153.396 319.847zM622.559 194.856c87.509-14.075 134.629-43.653 134.629-65.275 0-30.802-90.977-73.638-238.865-73.638-148.092 0-238.865 42.837-238.865 73.638 0 21.622 47.12 51.2 134.425 65.275 51.404-66.091 92.405-112.191 92.813-112.599 3.060-3.264 7.343-5.304 11.831-5.304s8.771 1.836 11.831 5.304c0 0.408 40.797 46.712 92.201 112.599zM518.12-30.955c-291.085 0-486.706 83.022-486.706 160.535 0 64.051 133.406 126.674 318.623 150.132 2.244-3.264 4.692-6.527 7.139-9.587 9.383-13.055 18.971-26.11 28.762-38.961 2.040-2.652 3.876-5.508 5.916-8.159-90.773-17.339-144.217-51.608-144.217-93.425 0-68.131 139.321-105.052 270.279-105.052 131.162 0 270.279 36.717 270.279 105.052 0 42.021-53.444 76.29-144.217 93.425 0.204 0.204 0.408 0.612 0.612 0.816 6.731 8.771 13.055 17.339 19.175 25.702 1.836 2.448 3.468 4.692 5.1 6.935 4.896 6.527 9.587 13.055 14.075 19.378 0.816 1.224 1.836 2.652 2.856 3.876 185.218-23.254 318.827-85.877 318.827-150.132 0.204-77.514-195.417-160.535-486.502-160.535zM518.12 429.233c75.066 0 140.545 42.021 173.998 103.624 15.299 28.15 23.866 60.175 23.866 94.241 0 109.131-88.733 198.069-198.069 198.069-34.065 0-66.295-8.771-94.241-23.866-61.807-33.657-103.624-98.932-103.624-173.998 0-109.131 88.937-198.069 198.069-198.069zM438.77 773.763c23.662 12.851 50.588 20.194 79.35 20.194 91.793 0 166.655-74.658 166.655-166.655 0-28.762-7.343-55.688-20.194-79.35-28.15-52.016-83.225-87.305-146.461-87.305-91.793 0-166.655 74.658-166.655 166.655 0 63.235 35.493 118.107 87.305 146.461z" />
<glyph unicode="&#xe90d;" glyph-name="paper" data-tags="paper" horiz-adv-x="1022" d="M100.187 233.342h333.353c8.852 0 15.893 7.242 15.893 15.893 0 8.852-7.242 15.893-15.893 15.893h-333.353c-8.852 0-15.893-7.242-15.893-15.893-0.201-8.651 7.041-15.893 15.893-15.893zM100.187 432.308h441.386c8.852 0 15.893 7.242 15.893 15.893s-7.242 15.893-15.893 15.893h-441.386c-8.852 0-15.893-7.242-15.893-15.893s7.041-15.893 15.893-15.893zM350.252 722.207c4.024 0 8.047 1.408 11.065 4.426l26.958 26.153v-173.617c0-8.852 7.242-15.893 15.893-15.893h198.563c8.852 0 15.893 7.242 15.893 15.893v173.617l26.958-26.153c6.237-6.237 16.497-6.035 22.532 0.402 6.237 6.237 6.035 16.497-0.402 22.532l-153.499 149.073c-3.018 3.018-7.041 4.426-11.065 4.426s-8.047-1.408-11.065-4.426l-153.499-149.073c-6.237-6.237-6.438-16.295-0.402-22.532 3.822-3.219 7.846-4.828 12.071-4.828zM587.040 783.969v-188.706h-166.777v188.706l83.288 80.874 83.489-80.874zM965.457 934.249l-35.206 15.692c-23.337 10.059-49.088 10.864-72.827 1.609-12.674-4.828-23.739-12.272-32.993-21.727-11.467 16.295-30.378 26.958-51.904 26.958h-531.112c-0.402 0-0.604-0.201-1.006-0.201-1.408 0-2.817-0.402-4.225-0.805-0.402-0.201-1.006-0.201-1.408-0.604-1.609-0.805-3.42-1.811-4.627-3.219l-225.521-225.521c0 0 0 0 0-0.201-1.207-1.408-2.213-2.817-3.018-4.426-0.201-0.604-0.402-1.006-0.604-1.609-0.402-1.207-0.604-2.615-0.805-4.024 0-0.402-0.201-0.604-0.201-1.006v-715.191c0-35.407 28.769-63.975 63.975-63.975h708.552c35.206 0 63.774 28.567 63.774 63.774v407.991l177.239 400.949c21.526 47.881-0.201 104.211-48.082 125.536zM225.32 902.262v-139.216c0-17.704-14.284-31.987-31.987-31.987h-138.813l170.801 171.203zM804.514-0.226c0-17.704-14.284-31.987-31.987-31.987h-708.552c-17.704 0-31.987 14.284-31.987 31.987v699.297h161.547c35.206 0 63.774 28.567 63.774 63.774v161.949h515.219c15.491 0 28.366-11.065 31.384-25.55l-277.023-626.27c0-0.201 0-0.402-0.201-0.604-0.604-1.609-1.006-3.219-1.006-4.828 0-0.402 0-0.805 0-1.207 0-0.201 0-0.402 0-0.604l11.065-199.167h-436.558c-8.852 0-15.893-7.242-15.893-15.893 0-8.852 7.242-15.893 15.893-15.893h447.623c1.006 0 1.811 0.402 2.817 0.604 1.006-0.201 1.811-0.604 2.817-0.604 3.621 0 7.242 1.207 10.059 3.621l167.783 136.399c0.201 0.201 0.402 0.402 0.604 0.604s0.604 0.604 0.805 0.805c1.207 1.207 2.213 2.615 2.817 4.024 0 0.201 0.201 0.201 0.402 0.402l68.803 155.31v-336.17h-0.201zM558.875 241.188l132.174-58.543-123.323-100.187-8.852 158.73zM984.569 821.589l-271.591-613.796-150.683 66.791 271.591 613.796c0.604 1.609 1.609 2.817 2.414 4.426 7.242 13.278 18.307 23.538 32.591 28.97 15.692 6.035 32.792 5.633 48.283-1.207l35.206-15.692c31.987-14.083 46.271-51.502 32.189-83.288z" />
<glyph unicode="&#xe90e;" glyph-name="percentage" data-tags="percentage" d="M952.441 551.811l-20.561 7.861c-20.561 7.861-36.485 23.383-44.951 43.54-8.466 20.359-8.063 42.532 1.008 62.69l9.071 20.157c19.351 43.137 10.683 90.709-22.778 123.969-33.461 33.461-81.033 42.129-123.969 22.778l-20.157-9.071c-20.157-9.071-42.331-9.272-62.69-1.008-20.359 8.466-35.88 24.391-43.54 44.951l-7.861 20.561c-16.932 44.346-56.844 71.761-104.013 71.761s-87.080-27.414-103.811-71.559l-7.861-20.561c-7.66-20.762-23.181-36.687-43.54-45.153s-42.532-8.063-62.69 1.008l-20.157 9.071c-43.137 19.351-90.709 10.683-123.969-22.778-33.461-33.461-42.129-81.033-22.778-123.969l9.071-20.157c9.071-20.157 9.474-42.331 1.008-62.69s-24.391-35.88-44.951-43.54l-20.561-7.861c-44.346-16.731-71.761-56.643-71.761-103.811s27.414-87.080 71.559-103.811l20.561-7.861c20.561-7.861 36.485-23.383 44.951-43.54 8.466-20.359 8.063-42.532-1.008-62.69l-9.071-20.157c-19.351-43.137-10.683-90.709 22.778-123.969 33.461-33.461 81.033-42.129 123.969-22.778l20.157 9.071c20.157 9.071 42.331 9.474 62.69 1.008s35.88-24.391 43.54-44.951l7.861-20.561c16.731-44.145 56.441-71.559 103.811-71.559s87.080 27.414 103.811 71.559l7.861 20.561c7.861 20.561 23.383 36.485 43.54 44.951 20.359 8.466 42.532 8.063 62.69-1.008l20.157-9.071c43.137-19.351 90.709-10.683 123.969 22.778 33.461 33.461 42.129 81.033 22.778 123.969l-9.071 20.157c-9.071 20.157-9.474 42.331-1.008 62.69s24.391 35.88 44.951 43.54l20.561 7.861c44.145 16.731 71.563 56.441 71.563 103.811 0.399 47.169-27.015 87.080-71.16 103.811zM940.951 374.022l-20.561-7.861c-28.825-10.885-51.402-32.655-63.294-61.279s-11.288-59.868 1.411-88.088l9.071-20.157c16.529-36.687 2.419-69.745-16.126-88.29-18.746-18.545-51.603-32.655-88.29-16.126l-20.157 9.071c-28.22 12.699-59.465 13.102-88.088 1.411-28.624-11.893-50.394-34.268-61.279-63.294l-7.861-20.561c-14.312-37.493-47.572-50.998-73.776-50.998-26.406 0-59.666 13.304-73.776 50.998l-7.861 20.561c-10.885 28.825-32.655 51.402-61.279 63.294-13.707 5.644-28.22 8.466-42.532 8.466-15.521 0-30.841-3.225-45.556-9.877l-20.157-9.071c-36.687-16.529-69.745-2.419-88.29 16.126s-32.655 51.603-16.126 88.29l9.071 20.157c12.699 28.22 13.102 59.465 1.411 88.088-11.893 28.624-34.268 50.394-63.294 61.279l-20.561 7.861c-37.493 14.312-50.998 47.572-50.998 73.776 0 26.406 13.304 59.666 50.998 73.776l20.561 7.861c28.825 10.885 51.402 32.655 63.294 61.279s11.288 59.868-1.411 88.088l-9.071 20.157c-16.529 36.687-2.419 69.543 16.126 88.29 18.545 18.545 51.603 32.655 88.29 16.126l20.157-9.071c28.22-12.699 59.465-13.102 88.088-1.411 28.624 11.893 50.394 34.268 61.279 63.294l7.861 20.561c14.312 37.493 47.572 50.998 73.776 50.998 26.406 0 59.666-13.304 73.776-50.998l7.861-20.561c10.885-28.825 32.655-51.402 61.279-63.294s59.868-11.288 88.088 1.411l20.157 9.071c36.687 16.529 69.745 2.419 88.29-16.126s32.655-51.603 16.126-88.29l-9.071-20.157c-12.699-28.22-13.102-59.465-1.411-88.088 11.893-28.624 34.268-50.394 63.294-61.279l20.561-7.861c37.493-14.312 50.998-47.572 50.998-73.776s-13.304-59.465-50.998-73.776zM512 786.041c-186.457 0-338.041-151.584-338.041-338.041s151.584-338.041 338.041-338.041c186.457 0 338.041 151.584 338.041 338.041s-151.584 338.041-338.041 338.041zM512 142.009c-168.718 0-305.991 137.272-305.991 305.991s137.272 305.991 305.991 305.991c168.718 0 305.991-137.272 305.991-305.991s-137.272-305.991-305.991-305.991zM622.060 424.013c-39.106 0-70.954-31.849-70.954-70.954s31.849-70.954 70.954-70.954c39.106 0 70.954 31.849 70.954 70.954s-31.849 70.954-70.954 70.954zM622.060 313.953c-21.569 0-39.106 17.537-39.106 39.106s17.537 39.106 39.106 39.106c21.569 0 39.106-17.537 39.106-39.106-0.202-21.569-17.537-39.106-39.106-39.106zM473.096 542.942c0 39.106-31.849 70.954-70.954 70.954s-70.954-31.849-70.954-70.954c0-39.106 31.849-70.954 70.954-70.954s70.954 31.849 70.954 70.954zM363.036 542.942c0 21.569 17.537 39.106 39.106 39.106s39.106-17.537 39.106-39.106c0-21.569-17.537-39.106-39.106-39.106-21.77 0.202-39.106 17.537-39.106 39.106zM635.565 648.365c-7.458 4.636-17.335 2.217-21.972-5.241l-230.4-373.518c-4.636-7.458-2.217-17.335 5.241-21.972 2.62-1.613 13.102-6.854 21.972 5.241l230.198 373.518c4.838 7.458 2.419 17.335-5.039 21.972z" />
<glyph unicode="&#xe90f;" glyph-name="skycraper" data-tags="skycraper" d="M656.932 169.827h-83.855c-8.869 0-15.924-7.257-15.924-15.924v-99.175c0-8.869 7.257-15.924 15.924-15.924h83.855c8.869 0 15.924 7.257 15.924 15.924v98.973c0.202 8.869-7.055 16.126-15.924 16.126zM641.008 70.652h-51.805v67.124h51.805v-67.124zM466.847 169.827h-83.855c-8.869 0-15.924-7.257-15.924-15.924v-99.175c0-8.869 7.257-15.924 15.924-15.924h83.855c8.869 0 15.924 7.257 15.924 15.924v98.973c0 8.869-7.257 16.126-15.924 16.126zM450.721 70.652h-51.805v67.124h51.805v-67.124zM656.932 366.967h-83.855c-8.869 0-15.924-7.257-15.924-15.924v-99.175c0-8.869 7.257-15.924 15.924-15.924h83.855c8.869 0 15.924 7.257 15.924 15.924v99.175c0.202 8.869-7.055 15.924-15.924 15.924zM641.008 267.994h-51.805v67.124h51.805v-67.124zM466.847 366.967h-83.855c-8.869 0-15.924-7.257-15.924-15.924v-99.175c0-8.869 7.257-15.924 15.924-15.924h83.855c8.869 0 15.924 7.257 15.924 15.924v99.175c0 8.869-7.257 15.924-15.924 15.924zM450.721 267.994h-51.805v67.124h51.805v-67.124zM656.932 564.309h-83.855c-8.869 0-15.924-7.257-15.924-15.924v-99.175c0-8.869 7.257-15.924 15.924-15.924h83.855c8.869 0 15.924 7.257 15.924 15.924v99.175c0.202 8.668-7.055 15.924-15.924 15.924zM641.008 465.134h-51.805v67.124h51.805v-67.124zM466.847 564.309h-83.855c-8.869 0-15.924-7.257-15.924-15.924v-99.175c0-8.869 7.257-15.924 15.924-15.924h83.855c8.869 0 15.924 7.257 15.924 15.924v99.175c0 8.668-7.257 15.924-15.924 15.924zM450.721 465.134h-51.805v67.124h51.805v-67.124zM1008.076 959.798h-269.909c-8.869 0-15.924-7.257-15.924-15.924v-276.964h-404.359v116.913c0 5.241-2.419 10.079-6.652 12.901-4.233 3.024-9.474 3.83-14.513 2.217l-285.833-95.95c-6.45-2.016-10.885-8.265-10.885-15.118v-735.748c0-8.869 7.257-15.924 15.924-15.924h991.95c8.869 0 15.929 7.257 15.929 15.924v991.748c0.197 8.869-7.059 15.924-15.727 15.924zM32.050 676.384l253.783 85.266v-793.398h-54.022v136.668c0 40.113-32.655 72.769-72.769 72.769s-72.769-32.655-72.769-72.769v-136.668h-54.224v708.132zM118.123-31.748v136.668c0 22.576 18.343 40.92 40.92 40.92s40.92-18.343 40.92-40.92v-136.668h-81.839zM317.883 634.86h404.359v-666.608h-404.359v666.608zM991.95-31.748h-237.858v959.496h237.858v-959.496zM816.176 46.665h113.688c8.869 0 15.924 7.257 15.924 15.924v99.175c0 8.869-7.257 15.924-15.924 15.924h-113.688c-8.869 0-15.924-7.257-15.924-15.924v-99.175c0-8.869 7.257-15.924 15.924-15.924zM832.302 145.638h81.638v-67.124h-81.638v67.124zM816.176 270.413h113.688c8.869 0 15.924 7.257 15.924 15.924v99.175c0 8.869-7.257 15.924-15.924 15.924h-113.688c-8.869 0-15.924-7.257-15.924-15.924v-99.175c0-8.668 7.257-15.924 15.924-15.924zM832.302 369.587h81.638v-67.124h-81.638v67.124zM816.176 494.362h113.688c8.869 0 15.924 7.257 15.924 15.924v99.175c0 8.869-7.257 15.924-15.924 15.924h-113.688c-8.869 0-15.924-7.257-15.924-15.924v-98.973c0-8.869 7.257-16.126 15.924-16.126zM832.302 593.537h81.638v-67.124h-81.638v67.124zM816.176 718.312h113.688c8.869 0 15.924 7.257 15.924 15.924v99.175c0 8.869-7.257 15.924-15.924 15.924h-113.688c-8.869 0-15.924-7.257-15.924-15.924v-99.175c0-8.668 7.257-15.924 15.924-15.924zM832.302 817.487h81.638v-67.124h-81.638v67.124zM102.198 253.48h113.487c8.869 0 15.924 7.257 15.924 15.924v99.175c0 8.869-7.257 15.924-15.924 15.924h-113.487c-8.869 0-15.924-7.257-15.924-15.924v-99.175c-0.202-8.668 7.055-15.924 15.924-15.924zM118.123 352.655h81.638v-67.124h-81.638v67.124zM102.198 477.43h113.487c8.869 0 15.924 7.257 15.924 15.924v99.175c0 8.869-7.257 15.924-15.924 15.924h-113.487c-8.869 0-15.924-7.257-15.924-15.924v-99.175c-0.202-8.869 7.055-15.924 15.924-15.924zM118.123 576.403h81.638v-67.124h-81.638v67.124z" />
</font></defs></svg>