<?xml version="1.0" encoding="UTF-8"?>
<svg width="116px" height="87px" viewBox="0 0 116 87" version="1.1" xmlns="http://www.w3.org/2000/svg" xmlns:xlink="http://www.w3.org/1999/xlink">
    <g id="02-home-simple" stroke="none" stroke-width="1" fill="none" fill-rule="evenodd">
        <g transform="translate(-1360.000000, -3699.000000)" fill="#DE2021" fill-rule="nonzero" id="quote">
            <g transform="translate(1360.000000, 3699.000000)">
                <polygon id="Shape" points="0 52.2000816 25 52.2000816 8.33320312 87 33.3332031 87 50 52.2000816 50 0 0 0"></polygon>
                <polygon id="Shape" points="66 0 66 52.2000816 91 52.2000816 74.3332031 87 99.3332031 87 116 52.2000816 116 0"></polygon>
            </g>
        </g>
    </g>
</svg>
