{
	"deploy": {
		"local": "/Volumes/Data/webs/local/tractor/demo/",
		"remote": {
			"user": "dungnv",
			"subDomain": "tractor"
		}
	},
	"syncFolder": "/Volumes/Data/dung_thememove/tractor/",
	"proxy": {
		"remote": "http://tractor.thememove.com",
		"local": "http://dung.local/tractor/demo"
	},
	"translate": {
		"textDomain": "tractor",
		"bugReport": "http://thememove.com",
		"team": "ThemeMove <thememovedotcom@gmail.com>"
	},
	"notify": {
		"backgroundColor": "#ab61ff",
		"fontSize": "1.2em",
		"top": "50%"
	},
	"compileMinifyJS": [
		{
			"name": "main",
			"files": [
				"src/tractor/assets/js/modules/main/jquery.smartphone.js",
				"src/tractor/assets/js/modules/main/jquery.sizes.js",
				"src/tractor/assets/js/modules/main/begin-wrapper.js",
				"src/tractor/assets/js/modules/main/functions.js",
				"src/tractor/assets/js/modules/main/grid.js",
				"src/tractor/assets/js/modules/main/end-wrapper.js",
				"src/tractor/assets/js/modules/main/simple-likes-public.js"
			]
		},
		{
			"name": "woo",
			"files": [
				"src/tractor/assets/js/modules/woo/begin-wrapper.js",
				"src/tractor/assets/js/modules/woo/woo.js",
				"src/tractor/assets/js/modules/woo/end-wrapper.js"
			]
		},
		{
			"name": "counter",
			"files": [
				"src/tractor/assets/js/modules/counter/init.js"
			]
		},
		{
			"name": "pricing",
			"files": [
				"src/tractor/assets/js/modules/pricing/pricing.js"
			]
		},
		{
			"name": "chart",
			"files": [
				"src/tractor/assets/js/modules/chart/chart.js"
			]
		},
		{
			"name": "circle-progress",
			"files": [
				"src/tractor/assets/js/modules/circle-progress/init.js"
			]
		},
		{
			"name": "accordion",
			"files": [
				"src/tractor/assets/js/modules/accordion/accordion.js"
			]
		},
		{
			"name": "vivus",
			"files": [
				"src/tractor/assets/js/modules/vivus/vivus.min.js",
				"src/tractor/assets/js/modules/vivus/init.js"
			]
		},
		{
			"name": "lightslider",
			"files": [
				"src/tractor/assets/libs/light-slider/js/lightslider.min.js",
				"src/tractor/assets/js/modules/lightslider/init.js"
			]
		},
		{
			"name": "headroom",
			"files": [
				"src/tractor/assets/js/modules/headroom/headroom.js",
				"src/tractor/assets/js/modules/headroom/jQuery.headroom.js"
			]
		}
	]
}
